{
  "title": "Events.Events",
  "model": "instructors/me/teachingEvents",
  "searchExpression": "(indexof(name, '${text}') ge 0) or (day(startDate) eq ${/^\\d+$/.test(text) ? text : 0}) or (indexof(description, '${text}') ge 0)",
	"calendarEventTitleTemplate": "${startDate.toTimeString().substring(0,5)} - ${endDate.toTimeString().substring(0,5)} - ${displayCode} - ${name} - ${performer.alternateName}<% if (location) { %> - ${location} <% } %>",
  "selectable": false,
  "defaults": {
    "filter": "(eventHoursSpecification eq null and courseClass eq '${courseClass}'<% if (section) { %> and sections/section eq ${section} <% } %>)",
    "orderBy": "startDate desc",
    "expand": "sections, performer"
  },
  "multipleSelect": true,
  "columns": [
    {
      "name": "startDate", 
      "property": "startDate",
      "formatter": "DateFormatter",
      "label": "Date",
      "title": "Events.Date",
      "className": "text-nowrap"
    },
    {
      "name": "endDate",
      "property": "endDate",
      "hidden": true
    },
    {
      "name": "courseClass/title",
      "property": "courseClass",
      "title": "Events.Classes.Course",
      "label": "Class",
      "hidden": true
    },
    {
      "name": "name",
      "property": "name",
      "title": "Events.Title",
      "label": "Name",
      "hidden": false
    },
    {
      "name": "location/displayCode",
      "property": "placeCode",
      "title": "Events.Places.Code"
    },
    {
      "name": "location/name",
      "property": "location",
      "title": "Events.Places.TitleSingular"
    },
    {
      "name": "description",
      "property": "description",
      "title": "Events.Description",
      "label": "Events.Description",
      "hidden": false
    },
    {
      "name": "sections",
      "property": "sections",
      "title": "Events.Classes.Section",
      "label": "Events.ClassSections",
      "hidden": false,
      "sortable": false,
      "virtual": true,
      "formatters": [
        {
          "formatter": "TemplateFormatter",
          "formatString": "${sections && Array.isArray(sections) && sections.length > 0 ?'<span class=\"text-center\">' + sections.map(x=> x.name).join(',') + '</span>':'-'}"
        }
      ]
    },
    {
      "name": "performer",
      "title": "Events.Performer",
      "label": "Events.Performer",
      "formatter": "TemplateFormatter",
      "formatString": "${performer && performer.alternateName || '-'}"
    },
    {
      "name": "eventStatus/name",
      "property": "eventStatus",
      "formatter": "StatusFormatter",
      "title": "Events.StatusGeneral",
      "label": "Status",
      "hidden": false
    },
    {
      "name": "id",
      "formatter": "ButtonFormatter",
      "className": "text-center",
      "sortable": false,
      "formatOptions": {
        "buttonContent": "<i class=\"far fa-eye text-indigo\"></i>",
        "buttonClass": "btn btn-default",
        "commands": [
          "${id}",
          "attendance"
        ]
      }
    },
    {
      "name": "id",
      "property": "eventId",
      "sortable": false,
      "formatString": "(modal:delete)",
      "className": "text-center",
      "formatters": [
        {
          "formatter": "ButtonFormatter",
          "formatOptions": {
            "buttonContent": "<i class=\"fa fa-trash text-indigo\" aria-hidden=\"true\"></i>",
            "buttonClass": "btn btn-default",
            "commands": [
              "${eventId}",
              "delete"
            ],
            "navigationExtras": {
              "replaceUrl": false,
              "skipLocationChange": true
            }
          }
        },
        {
          "formatter": "NgClassFormatter",
          "formatOptions": {
            "ngClass": {
              "d-none": "${year !== currentYear || eventStatus === \"EventCompleted\"}"
            }
          }
        }
      ]
    },
    {
      "name": "courseClass/year",
      "property": "year",
      "hidden": true
    },
    {
      "name": "courseClass/department/currentYear",
      "property": "currentYear",
      "hidden": true
    },
    {
      "name": "courseClass/course/displayCode",
      "property": "displayCode",
      "hidden": true
    }
  ],
  "searches": [],
  "paths": [],
  "criteria": [
    {
      "name": "eventName",
      "filter": "(indexof(name, '${value}') ge 0)",
      "type": "text"
    },
    {
      "name": "sections",
      "filter": "(sections/section eq ${value})",
      "type": "text"
    },
    {
      "name": "minDate",
      "filter": "(startDate ge '${new Date(value).toISOString()}')",
      "type": "text"
    },
    {
      "name": "maxDate",
      "filter": "(startDate le '${new Date(new Date(value).setHours(23,59,59,59)).toISOString()}')",
      "type": "text"
    },
    {
      "name": "status",
      "filter": "(eventStatus eq '${value}')",
      "type": "text"
    }
  ]
}